{
  "/js/BackendApp.js": "/js/BackendApp.39775be0c31d0197d88f.js",
  "/js/LearnApp.js": "/js/LearnApp.dfbb2d23a4a24e22ee34.js",
  "/js/CatalogApp.js": "/js/CatalogApp.90980cc0a709915cb3c7.js",
  "/js/JournalsApp.js": "/js/JournalsApp.3cf8fcfd6f87b38f7255.js",
  "/js/DrugsApp.js": "/js/DrugsApp.e0b72de7d5151c003006.js",
  "/js/DrugsSingleApp.js": "/js/DrugsSingleApp.5f2a40e6c610c03bfca5.js",
  "/js/front.js": "/js/front.356fc49d426364a54473.js",
  "/css/front.css": "/css/front.efa624ff3f75dabd825b9f9055fce235.css",
  "/css/app.css": "/css/app.92ae7cda9c94203b626b9a7aed3cdced.css",
  "/css/backend-app.css": "/css/backend-app.b560dd3a1dcd3d1791ec53dffaae3d6d.css"
}